Circle [15,10] 14
Line [20,10] [45,60]
Rectangle [30,30] 100 150
Image [60,20] different.img
Circle [14,55] 22
Image [70,40] another.img
Line [20,100] [40,65]
Image [80,30] default.img
Line [120,10] [145,60]
